Exploratory Data Analysis - krohitm's blog
…
Comparing the results with the published table, it looks like the values in outcome are correct. Similarly, here is the published table for birthwgt_lb value label Total . INAPPLICABLE 4449 0-5 UNDER 6 POUNDS 1125 6 6 POUNDS 2223 7 7 POUNDS 3049 8 8 POUNDS 1889 9-95 9 POUNDS OR MORE 799

femPreg2002 %>%
  group_by(birthwgt_lb) %>%
  summarise(Total = length(birthwgt_lb))

## # A tibble: 21 x 2
##    birthwgt_lb Total
##          <int> <int>
##  1           0     8
##  2           1    40
##  3           2    53
##  4           3    98
##  5           4   229
##  6           5   697
##  7           6  2223
##  8           7  3049
##  9           8  1889
## 10           9   623
## # ... with 11 more rows
…
