Linear regression: Modeling and Assumptions | Did you say data?
…
Outliers

Outliers are the observations which in some way are quite different from the distribution of the data. With respect to a model, an outlier is an observation whose predicted outcome is much different from the actual value of the outcome.

Residual Plots (yes, again) can be used to identify outliers. We can look at the the last residual plot above. To use a standard comparison of residuals, we can use standardized residuals. Usually, the observations with residuals above 3 are possible outliers.

#finding ids of observations with absolute residuals of 3+, and order by value in desc order
pot.outliers <- stdres(trans.lm.fit) %>%
  tidy() %>%
  dplyr::filter(x>3) %>%
  dplyr::arrange(-x)
pot.outliers

# A tibble: 50 x 2
   names     x
   <chr> <dbl>
 1 517    5.23
 2 1301   5.16
 3 220    4.90
 4 1020   4.59
 5 243    4.56
 6 431    4.55
 7 807    4.38
 8 1028   4.36
 9 937    4.35
10 1207   4.33
# ... with 40 more rows

outlier.ids <- as.numeric(pot.outliers$names)

51 observations have an absolute standardized residual greater than 3. That marks approximately 3.8% of the observations.

dplyr::slice(insurance, outlier.ids)

# A tibble: 50 x 7
     age sex      bmi children smoker region    charges
   <int> <fct>  <dbl>    <int> <fct>  <fct>       <dbl>
 1    20 male    35.3        1 no     southeast  27724.
 2    45 male    30.4        0 yes    southeast  62593.
 3    24 female  23.2        0 no     southeast  25082.
 4    21 female  32.7        2 no     northwest  26019.
 5    55 female  26.8        1 no     southwest  35160.
 6    19 male    33.1        0 no     southwest  23083.
 7    40 female  41.4        1 no     northwest  28477.
 8    23 male    18.7        0 no     northwest  21595.
 9    44 male    29.7        2 no     northeast  32109.
10    59 female  34.8        2 no     southwest  36911.
# ... with 40 more rows
…
